Final Project Question – STA 9750 Submission Material
…
  clean_permits <- clean_permits |>
    group_by(zipcode, start_year) |>
    mutate(zip_count_by_year = n()) |>
    group_by(zipcode, start_year, start_month) |>
    mutate(zip_count_by_month = n()) |>
    group_by(zipcode) |>
    mutate(zip_count_total = n()) |>
    ungroup()
  
  clean_permits <- clean_permits |> filter(zipcode != "0")

clean_permits

# A tibble: 104,332 × 16
   eventid eventtype start_year start_month start_day end_year end_month end_day
     <dbl> <chr>          <dbl>       <dbl>     <int>    <dbl>     <dbl>   <int>
 1  754394 Shooting…       2023          12        29     2023        12      29
 2  754394 Shooting…       2023          12        29     2023        12      29
 3  754181 Shooting…       2023          12        28     2023        12      28
 4  754156 Shooting…       2023          12        29     2023        12      30
 5  754156 Shooting…       2023          12        29     2023        12      30
 6  754155 Shooting…       2023          12        28     2023        12      28
 7  754135 Shooting…       2023          12        27     2023        12      27
 8  754135 Shooting…       2023          12        27     2023        12      27
 9  754085 Shooting…       2023          12        25     2023        12      25
10  754085 Shooting…       2023          12        25     2023        12      25
# ℹ 104,322 more rows
# ℹ 8 more variables: eventagency <chr>, borough <chr>, category <chr>,
#   subcategoryname <chr>, zipcode <chr>, zip_count_by_year <int>,
#   zip_count_by_month <int>, zip_count_total <int>
…
# Combine tables
JOIN_TABLE <- INCOME |>
  left_join(RENT, by = c("GEOID", "year","NAME" )) |>
  rename(zipcode = "GEOID") |>
  select(-NAME)

## optional function to format the column name
format_titles <- function(df){
  colnames(df) <- str_replace_all(colnames(df), "_", " ") |> str_to_title()
  df
}
JOIN_TABLE |> 
  format_titles()

# A tibble: 1,720 × 4
   Zipcode `Household Income`  Year `Monthly Rent`
   <chr>                <dbl> <dbl>          <dbl>
 1 10001                81671  2013           1830
 2 10002                33218  2013            848
 3 10003                92540  2013           1855
 4 10004               129313  2013           2001
 5 10005               124670  2013           2001
 6 10006               119274  2013           2001
 7 10007               216037  2013           2001
 8 10009                59929  2013           1436
 9 10010                97955  2013           2001
10 10011               104238  2013           1911
# ℹ 1,710 more rows

Code

JOIN_TABLE

# A tibble: 1,720 × 4
   zipcode household_income  year monthly_rent
   <chr>              <dbl> <dbl>        <dbl>
 1 10001              81671  2013         1830
 2 10002              33218  2013          848
 3 10003              92540  2013         1855
 4 10004             129313  2013         2001
 5 10005             124670  2013         2001
 6 10006             119274  2013         2001
 7 10007             216037  2013         2001
 8 10009              59929  2013         1436
 9 10010              97955  2013         2001
10 10011             104238  2013         1911
# ℹ 1,710 more rows
…
Code

#What we need for the question

#zipcode's permit counts per year
permits_yearly <- clean_permits %>%
  distinct(zipcode, start_year, .keep_all = TRUE) %>%
  select(zipcode, start_year, permits = zip_count_by_year) %>%
  rename(year = start_year)

permits_yearly

# A tibble: 2,174 × 3
   zipcode  year permits
   <chr>   <dbl>   <int>
 1 11101    2023     376
 2 11222    2023     607
 3 11433    2023       4
 4 11435    2023       2
 5 10036    2023     332
 6 10105    2023     217
 7 11377    2023      12
 8 11378    2023      18
 9 11106    2023      29
10 11373    2023       6
# ℹ 2,164 more rows

Code

#average sales value per zipcode per year
avg_sale_yearly <- sales_clean_2013_2023 %>%
  group_by(zip_code, year) %>%
  summarise(
    avg_sale_price = mean(sale_price, na.rm = TRUE),
  .groups = "drop"  
  ) %>%
  rename(zipcode = zip_code)
avg_sale_yearly

# A tibble: 2,021 × 3
   zipcode  year avg_sale_price
   <chr>   <dbl>          <dbl>
 1 10001    2013       7249010.
 2 10001    2014      10840596.
 3 10001    2015       8861737.
 4 10001    2016      12407056.
 5 10001    2017       3497069.
 6 10001    2018      11865753.
 7 10001    2019      13426053.
 8 10001    2020      12077050.
 9 10001    2021      12135469.
10 10001    2022       3300760.
# ℹ 2,011 more rows

Code

#Zipcodes with average monthly average rent
yearly_rent <- JOIN_TABLE %>%
  select(zipcode, year, monthly_rent) %>%
  mutate(annual_rent = monthly_rent * 12)

yearly_rent

# A tibble: 1,720 × 4
   zipcode  year monthly_rent annual_rent
   <chr>   <dbl>        <dbl>       <dbl>
 1 10001    2013         1830       21960
 2 10002    2013          848       10176
 3 10003    2013         1855       22260
 4 10004    2013         2001       24012
 5 10005    2013         2001       24012
 6 10006    2013         2001       24012
 7 10007    2013         2001       24012
 8 10009    2013         1436       17232
 9 10010    2013         2001       24012
10 10011    2013         1911       22932
# ℹ 1,710 more rows

Code

all_joint <- permits_yearly %>%
  full_join(avg_sale_yearly, by = c("zipcode", "year")) %>%
  full_join(yearly_rent,     by = c("zipcode", "year"))

all_joint

# A tibble: 2,384 × 6
   zipcode  year permits avg_sale_price monthly_rent annual_rent
   <chr>   <dbl>   <int>          <dbl>        <dbl>       <dbl>
 1 11101    2023     376       2126400.         2740       32880
 2 11222    2023     607       2025665.         2595       31140
 3 11433    2023       4        972543.         1529       18348
 4 11435    2023       2       1887919.         1820       21840
 5 10036    2023     332       5625300.         2301       27612
 6 10105    2023     217            NA            NA          NA
 7 11377    2023      12       1089818.         1802       21624
 8 11378    2023      18       1432383.         1932       23184
 9 11106    2023      29        898658.         2032       24384
10 11373    2023       6        953269.         1913       22956
# ℹ 2,374 more rows
…
library(dplyr)

all_joint <- all_joint %>%
  arrange(zipcode, year) %>%
  group_by(zipcode) %>%
  mutate(
    price_growth = (avg_sale_price - lag(avg_sale_price)) / lag(avg_sale_price),
    rent_growth  = (annual_rent - lag(annual_rent)) / lag(annual_rent)
  ) %>%
  ungroup()

all_joint

# A tibble: 2,384 × 8
   zipcode  year permits avg_sale_price monthly_rent annual_rent price_growth
   <chr>   <dbl>   <int>          <dbl>        <dbl>       <dbl>        <dbl>
 1 00083    2013      28             NA           NA          NA           NA
 2 00083    2014      14             NA           NA          NA           NA
 3 00083    2015      13             NA           NA          NA           NA
 4 00083    2016       9             NA           NA          NA           NA
 5 00083    2017       9             NA           NA          NA           NA
 6 00083    2018       9             NA           NA          NA           NA
 7 00083    2019       7             NA           NA          NA           NA
 8 00083    2020       3             NA           NA          NA           NA
 9 00083    2021       2             NA           NA          NA           NA
10 00083    2022       8             NA           NA          NA           NA
# ℹ 2,374 more rows
# ℹ 1 more variable: rent_growth <dbl>
…
