Mini-Project #04 – STA 9750 Submission Material
…
  drop_na(level, date) %>%
  select(date, level) %>%
  arrange(date)

# ===========================================
# 4. Filter to required window
# ===========================================

result <- clean_tbl %>%
  filter(date >= ym("1979-01"),
         date <= ym("2025-06"))

result

# A tibble: 558 × 2
   date       level
   <date>     <dbl>
 1 1979-01-01 88808
 2 1979-02-01 89055
 3 1979-03-01 89479
 4 1979-04-01 89417
 5 1979-05-01 89789
 6 1979-06-01 90108
 7 1979-07-01 90217
 8 1979-08-01 90300
 9 1979-09-01 90327
10 1979-10-01 90481
# ℹ 548 more rows
…
tail(ces_all)

# A tibble: 6 × 4
  date       original final revision
  <date>        <dbl> <dbl>    <dbl>
1 2025-01-01      143   111      -32
2 2025-02-01      151   102      -49
3 2025-03-01      228   120     -108
4 2025-04-01      177   158      -19
5 2025-05-01      139    19     -120
6 2025-06-01      147   -13     -160

ces_all

# A tibble: 558 × 4
   date       original final revision
   <date>        <dbl> <dbl>    <dbl>
 1 1979-01-01      325   243      -82
 2 1979-02-01      301   294       -7
 3 1979-03-01      324   445      121
 4 1979-04-01       72   -15      -87
 5 1979-05-01      171   291      120
 6 1979-06-01       97   225      128
 7 1979-07-01       44    87       43
 8 1979-08-01        2    49       47
 9 1979-09-01      135    41      -94
10 1979-10-01      306   179     -127
# ℹ 548 more rows
…
tail(combined)

# A tibble: 6 × 5
  date        level original final revision
  <date>      <dbl>    <dbl> <dbl>    <dbl>
1 2025-01-01 159053      143   111      -32
2 2025-02-01 159155      151   102      -49
3 2025-03-01 159275      228   120     -108
4 2025-04-01 159433      177   158      -19
5 2025-05-01 159452      139    19     -120
6 2025-06-01 159439      147   -13     -160

combined

# A tibble: 558 × 5
   date       level original final revision
   <date>     <dbl>    <dbl> <dbl>    <dbl>
 1 1979-01-01 88808      325   243      -82
 2 1979-02-01 89055      301   294       -7
 3 1979-03-01 89479      324   445      121
 4 1979-04-01 89417       72   -15      -87
 5 1979-05-01 89789      171   291      120
 6 1979-06-01 90108       97   225      128
 7 1979-07-01 90217       44    87       43
 8 1979-08-01 90300        2    49       47
 9 1979-09-01 90327      135    41      -94
10 1979-10-01 90481      306   179     -127
# ℹ 548 more rows
…
